Orderly Qwilting - Harvesting S&P 500 Sectors
…
    Published

      January 28, 2021

A little work with the rvest package. Try to get the current S&P 500 constituents from Wikipedia.

According to my SelectorGadget work, the element I am looking for is “#constituents”

{html_node}
<table class="wikitable sortable" id="constituents">
[1] <tbody>\n<tr>\n<th>\n<a href="/wiki/Ticker_symbol" title="Ticker symbol"> ...

Since this is a table, it needs to be passed through the html_table function.

# A tibble: 503 × 9
   symbol security        sec_f…¹ gics_…² gics_…³ headq…⁴ date_…⁵    cik founded
   <chr>  <chr>           <chr>   <chr>   <chr>   <chr>   <chr>    <int> <chr>  
 1 MMM    3M              reports Indust… Indust… Saint … 1976-0… 6.67e4 1902   
 2 AOS    A. O. Smith     reports Indust… Buildi… Milwau… 2017-0… 9.11e4 1916   
 3 ABT    Abbott          reports Health… Health… North … 1964-0… 1.8 e3 1888   
 4 ABBV   AbbVie          reports Health… Pharma… North … 2012-1… 1.55e6 2013 (…
 5 ABMD   Abiomed         reports Health… Health… Danver… 2018-0… 8.15e5 1981   
 6 ACN    Accenture       reports Inform… IT Con… Dublin… 2011-0… 1.47e6 1989   
 7 ATVI   Activision Bli… reports Commun… Intera… Santa … 2015-0… 7.19e5 2008   
 8 ADM    ADM             reports Consum… Agricu… Chicag… 1981-0… 7.08e3 1902   
 9 ADBE   Adobe Inc.      reports Inform… Applic… San Jo… 1997-0… 7.96e5 1982   
10 ADP    ADP             reports Inform… Data P… Rosela… 1981-0… 8.67e3 1949   
# … with 493 more rows, and abbreviated variable names ¹​sec_filings,
#   ²​gics_sector, ³​gics_sub_industry, ⁴​headquarters_location, ⁵​date_first_added
# ℹ Use `print(n = ...)` to see more rows
…
