Orderly Qwilting - Harvesting S&P 500 Sectors
…
    Published

      January 28, 2021

A little work with the rvest package. Try to get the current S&P 500 constituents from Wikipedia.

According to my SelectorGadget work, the element I am looking for is “#constituents”

{html_node}
<table class="wikitable sortable" id="constituents">
[1] <tbody>\n<tr>\n<th>\n<a href="/wiki/Ticker_symbol" title="Ticker symbol"> ...

Since this is a table, it needs to be passed through the html_table function.

# A tibble: 503 × 8
   symbol security           gics_sector gics_sub_industry headquarters_location
   <chr>  <chr>              <chr>       <chr>             <chr>                
 1 MMM    3M                 Industrials Industrial Congl… Saint Paul, Minnesota
 2 AOS    A. O. Smith        Industrials Building Products Milwaukee, Wisconsin 
 3 ABT    Abbott             Health Care Health Care Equi… North Chicago, Illin…
 4 ABBV   AbbVie             Health Care Pharmaceuticals   North Chicago, Illin…
 5 ACN    Accenture          Informatio… IT Consulting & … Dublin, Ireland      
 6 ATVI   Activision Blizza… Communicat… Interactive Home… Santa Monica, Califo…
 7 ADM    ADM                Consumer S… Agricultural Pro… Chicago, Illinois    
 8 ADBE   Adobe Inc.         Informatio… Application Soft… San Jose, California 
 9 ADP    ADP                Industrials Human Resource &… Roseland, New Jersey 
10 AAP    Advance Auto Parts Consumer D… Automotive Retail Raleigh, North Carol…
# ℹ 493 more rows
# ℹ 3 more variables: date_added <chr>, cik <int>, founded <chr>
…
